<?xml version="1.0" encoding="utf-8"?>
<!-- Generator: Adobe Illustrator 23.0.3, SVG Export Plug-In . SVG Version: 6.00 Build 0)  -->
<svg version="1.1" id="Camada_1" xmlns="http://www.w3.org/2000/svg" xmlns:xlink="http://www.w3.org/1999/xlink" x="0px" y="0px"
	 viewBox="0 0 18 18" style="enable-background:new 0 0 18 18;" xml:space="preserve">
<style type="text/css">
	.st0{fill:none;stroke:#F35151;stroke-width:1.4;stroke-linecap:round;stroke-miterlimit:10;}
	.st1{fill:none;stroke:#F35151;stroke-width:1.4;stroke-miterlimit:10;}
	.st2{fill:none;stroke:#82D969;stroke-width:1.5;stroke-linecap:round;stroke-miterlimit:10;}
	.st3{clip-path:url(#SVGID_2_);}
	.st4{clip-path:url(#SVGID_4_);fill:#3C3C3C;}
	.st5{clip-path:url(#SVGID_6_);}
	.st6{clip-path:url(#SVGID_8_);fill:#3C3C3C;}
	.st7{clip-path:url(#SVGID_10_);}
	.st8{clip-path:url(#SVGID_12_);fill:#3C3C3C;}
	.st9{clip-path:url(#SVGID_14_);}
	.st10{clip-path:url(#SVGID_16_);fill:#3C3C3C;}
	.st11{fill:none;stroke:#3C3C3C;stroke-linecap:round;stroke-miterlimit:10;}
	.st12{fill:none;stroke:#3C3C3C;stroke-width:1.5;stroke-linecap:round;stroke-miterlimit:10;}
	.st13{clip-path:url(#SVGID_18_);fill:#3C3C3C;}
	.st14{clip-path:url(#SVGID_20_);fill:#3C3C3C;}
	.st15{clip-path:url(#SVGID_22_);fill:#3C3C3C;}
	.st16{clip-path:url(#SVGID_24_);fill:#3C3C3C;}
	.st17{fill:none;stroke:#3C3C3C;stroke-width:0.98;stroke-linecap:round;stroke-miterlimit:10;}
	.st18{clip-path:url(#SVGID_26_);fill:#3C3C3C;}
	.st19{clip-path:url(#SVGID_28_);fill:#FB2525;}
	.st20{clip-path:url(#SVGID_30_);fill:none;stroke:#3C3C3C;stroke-width:2;stroke-miterlimit:10;}
	.st21{clip-path:url(#SVGID_32_);fill:none;stroke:#3C3C3C;stroke-width:2;stroke-miterlimit:10;}
	.st22{clip-path:url(#SVGID_34_);fill:#3C3C3C;}
	.st23{clip-path:url(#SVGID_36_);fill:#3C3C3C;}
	.st24{clip-path:url(#SVGID_38_);fill:#3C3C3C;}
	.st25{clip-path:url(#SVGID_40_);fill:#3C3C3C;}
	.st26{clip-path:url(#SVGID_42_);fill:#3C3C3C;}
	.st27{clip-path:url(#SVGID_44_);fill:#3C3C3C;}
	.st28{clip-path:url(#SVGID_46_);fill:#3C3C3C;}
	.st29{fill:none;stroke:#3C3C3C;stroke-width:1;stroke-miterlimit:10;}
	.st30{clip-path:url(#SVGID_48_);fill:#3C3C3C;}
	.st31{clip-path:url(#SVGID_50_);fill:#3C3C3C;}
	.st32{clip-path:url(#SVGID_52_);fill:#3C3C3C;}
	.st33{clip-path:url(#SVGID_54_);fill:#3C3C3C;}
	.st34{clip-path:url(#SVGID_56_);fill:#3C3C3C;}
	.st35{clip-path:url(#SVGID_58_);fill:#3C3C3C;}
	.st36{clip-path:url(#SVGID_60_);fill:#3C3C3C;}
	.st37{clip-path:url(#SVGID_62_);fill:#3C3C3C;}
	.st38{clip-path:url(#SVGID_64_);fill:#3C3C3C;}
	.st39{clip-path:url(#SVGID_66_);fill:#3C3C3C;}
	.st40{clip-path:url(#SVGID_68_);fill:#3C3C3C;}
	.st41{clip-path:url(#SVGID_70_);fill:#3C3C3C;}
	.st42{clip-path:url(#SVGID_72_);fill:#3C3C3C;}
	.st43{clip-path:url(#SVGID_74_);fill:#3C3C3C;}
	.st44{clip-path:url(#SVGID_76_);fill:#3C3C3C;}
	.st45{clip-path:url(#SVGID_78_);enable-background:new    ;}
	.st46{clip-path:url(#SVGID_80_);}
	.st47{clip-path:url(#SVGID_82_);}
	.st48{clip-path:url(#SVGID_84_);fill:#3C3C3C;}
	.st49{clip-path:url(#SVGID_86_);fill:#3C3C3C;}
</style>
<g>
	<g>
		<defs>
			<rect id="SVGID_77_" x="0.6" y="1.5" width="16.8" height="15"/>
		</defs>
		<clipPath id="SVGID_2_">
			<use xlink:href="#SVGID_77_"  style="overflow:visible;"/>
		</clipPath>
		<g style="clip-path:url(#SVGID_2_);enable-background:new    ;">
			<g>
				<defs>
					<rect id="SVGID_79_" x="0" y="0.5" width="18" height="16"/>
				</defs>
				<clipPath id="SVGID_4_">
					<use xlink:href="#SVGID_79_"  style="overflow:visible;"/>
				</clipPath>
				<g style="clip-path:url(#SVGID_4_);">
					<defs>
						<path id="SVGID_81_" d="M5.3,3.2C5.1,3.3,5,3.5,5,3.7c0,0.2,0,0.4,0.2,0.6C5.5,4.6,6,4.7,6.3,4.4c1-0.8,2.3-1.3,3.7-1.3
							c3.2,0,5.8,2.6,5.8,5.9c0,3.2-2.6,5.9-5.8,5.9c-2.6,0-4.9-1.8-5.6-4.3l1.8,0L3.3,7.8l-2.7,2.8l2.1,0c0.7,3.4,3.8,5.9,7.3,5.9
							c4.1,0,7.4-3.4,7.4-7.5S14.1,1.5,10,1.5C8.3,1.5,6.6,2.1,5.3,3.2"/>
					</defs>
					<clipPath id="SVGID_6_">
						<use xlink:href="#SVGID_81_"  style="overflow:visible;"/>
					</clipPath>
					<g class="st5">
						<defs>
							<rect id="SVGID_83_" x="0" y="1.5" width="18" height="15"/>
						</defs>
						<clipPath id="SVGID_8_">
							<use xlink:href="#SVGID_83_"  style="overflow:visible;"/>
						</clipPath>
						<rect x="-4.4" y="-3.5" class="st6" width="26.8" height="25"/>
					</g>
				</g>
			</g>
		</g>
	</g>
	<g>
		<defs>
			<path id="SVGID_85_" d="M11.8,11.5c-0.2,0-0.3,0-0.4-0.1L8.6,9.5V5.3c0-0.4,0.4-0.8,0.8-0.8s0.8,0.4,0.8,0.8v3.4l2.1,1.4
				c0.4,0.2,0.5,0.7,0.2,1.1C12.3,11.4,12.1,11.5,11.8,11.5"/>
		</defs>
		<clipPath id="SVGID_10_">
			<use xlink:href="#SVGID_85_"  style="overflow:visible;"/>
		</clipPath>
		<rect x="3.6" y="-0.5" style="clip-path:url(#SVGID_10_);fill:#3C3C3C;" width="14" height="17"/>
	</g>
</g>
</svg>
