<?xml version="1.0" encoding="utf-8"?>
<!-- Generator: Adobe Illustrator 23.0.3, SVG Export Plug-In . SVG Version: 6.00 Build 0)  -->
<svg version="1.1" id="Camada_1" xmlns="http://www.w3.org/2000/svg" xmlns:xlink="http://www.w3.org/1999/xlink" x="0px" y="0px"
	 viewBox="0 0 18 18" style="enable-background:new 0 0 18 18;" xml:space="preserve">
<style type="text/css">
	.st0{fill:none;stroke:#F35151;stroke-width:1.4;stroke-linecap:round;stroke-miterlimit:10;}
	.st1{fill:none;stroke:#F35151;stroke-width:1.4;stroke-miterlimit:10;}
	.st2{fill:none;stroke:#82D969;stroke-width:1.5;stroke-linecap:round;stroke-miterlimit:10;}
	.st3{clip-path:url(#SVGID_2_);}
	.st4{clip-path:url(#SVGID_4_);fill:#3C3C3C;}
	.st5{clip-path:url(#SVGID_6_);}
	.st6{clip-path:url(#SVGID_8_);fill:#3C3C3C;}
	.st7{clip-path:url(#SVGID_10_);}
	.st8{clip-path:url(#SVGID_12_);fill:#3C3C3C;}
	.st9{clip-path:url(#SVGID_14_);}
	.st10{clip-path:url(#SVGID_16_);fill:#3C3C3C;}
	.st11{fill:none;stroke:#3C3C3C;stroke-linecap:round;stroke-miterlimit:10;}
	.st12{fill:none;stroke:#3C3C3C;stroke-width:1.5;stroke-linecap:round;stroke-miterlimit:10;}
	.st13{clip-path:url(#SVGID_18_);fill:#3C3C3C;}
	.st14{clip-path:url(#SVGID_20_);fill:#3C3C3C;}
	.st15{clip-path:url(#SVGID_22_);fill:#3C3C3C;}
	.st16{clip-path:url(#SVGID_24_);fill:#3C3C3C;}
	.st17{fill:none;stroke:#3C3C3C;stroke-width:0.98;stroke-linecap:round;stroke-miterlimit:10;}
	.st18{clip-path:url(#SVGID_26_);fill:#3C3C3C;}
	.st19{clip-path:url(#SVGID_28_);fill:#FB2525;}
	.st20{clip-path:url(#SVGID_30_);fill:none;stroke:#3C3C3C;stroke-width:2;stroke-miterlimit:10;}
	.st21{clip-path:url(#SVGID_32_);fill:none;stroke:#3C3C3C;stroke-width:2;stroke-miterlimit:10;}
	.st22{clip-path:url(#SVGID_34_);fill:#3C3C3C;}
	.st23{clip-path:url(#SVGID_36_);fill:#3C3C3C;}
	.st24{clip-path:url(#SVGID_38_);fill:#3C3C3C;}
	.st25{clip-path:url(#SVGID_40_);fill:#3C3C3C;}
	.st26{clip-path:url(#SVGID_42_);fill:#3C3C3C;}
	.st27{clip-path:url(#SVGID_44_);fill:#3C3C3C;}
	.st28{clip-path:url(#SVGID_46_);fill:#3C3C3C;}
	.st29{fill:none;stroke:#3C3C3C;stroke-width:1;stroke-miterlimit:10;}
	.st30{clip-path:url(#SVGID_48_);fill:#3C3C3C;}
	.st31{clip-path:url(#SVGID_50_);fill:#3C3C3C;}
	.st32{clip-path:url(#SVGID_52_);fill:#3C3C3C;}
	.st33{clip-path:url(#SVGID_54_);fill:#3C3C3C;}
	.st34{clip-path:url(#SVGID_56_);fill:#3C3C3C;}
	.st35{clip-path:url(#SVGID_58_);fill:#3C3C3C;}
	.st36{clip-path:url(#SVGID_60_);fill:#3C3C3C;}
	.st37{clip-path:url(#SVGID_62_);fill:#3C3C3C;}
	.st38{clip-path:url(#SVGID_64_);fill:#3C3C3C;}
	.st39{clip-path:url(#SVGID_66_);fill:#3C3C3C;}
	.st40{clip-path:url(#SVGID_68_);fill:#3C3C3C;}
	.st41{clip-path:url(#SVGID_70_);fill:#3C3C3C;}
	.st42{clip-path:url(#SVGID_72_);fill:#3C3C3C;}
	.st43{clip-path:url(#SVGID_74_);fill:#3C3C3C;}
	.st44{clip-path:url(#SVGID_76_);fill:#3C3C3C;}
	.st45{clip-path:url(#SVGID_78_);enable-background:new    ;}
	.st46{clip-path:url(#SVGID_80_);}
	.st47{clip-path:url(#SVGID_82_);}
	.st48{clip-path:url(#SVGID_84_);fill:#3C3C3C;}
	.st49{clip-path:url(#SVGID_86_);fill:#3C3C3C;}
</style>
<g>
	<g>
		<defs>
			<path id="SVGID_47_" d="M7.5,6h2c0.6,0,1,0.4,1,1v8h-3V6z"/>
		</defs>
		<clipPath id="SVGID_2_">
			<use xlink:href="#SVGID_47_"  style="overflow:visible;"/>
		</clipPath>
		<rect x="2.5" y="1" style="clip-path:url(#SVGID_2_);fill:#3C3C3C;" width="13" height="19"/>
	</g>
	<g>
		<defs>
			<circle id="SVGID_49_" cx="9" cy="3.5" r="1.5"/>
		</defs>
		<clipPath id="SVGID_4_">
			<use xlink:href="#SVGID_49_"  style="overflow:visible;"/>
		</clipPath>
		<rect x="2.5" y="-3" class="st4" width="13" height="13"/>
	</g>
	<g>
		<defs>
			<path id="SVGID_51_" d="M6.5,15L6.5,15c0-0.5,0.4-0.9,0.9-0.9h3.1c0.5,0,0.9,0.4,0.9,0.9S11.1,16,10.6,16H7.4
				C6.9,16,6.5,15.5,6.5,15z"/>
		</defs>
		<clipPath id="SVGID_6_">
			<use xlink:href="#SVGID_51_"  style="overflow:visible;"/>
		</clipPath>
		<rect x="1.5" y="9.1" style="clip-path:url(#SVGID_6_);fill:#3C3C3C;" width="15" height="11.9"/>
	</g>
	<g>
		<defs>
			<path id="SVGID_53_" d="M6.5,7L6.5,7c0-0.5,0.4-1,1-1h2.1c0.5,0,1,0.4,1,1c0,0.5-0.4,1-1,1H7.5C6.9,8,6.5,7.5,6.5,7z"/>
		</defs>
		<clipPath id="SVGID_8_">
			<use xlink:href="#SVGID_53_"  style="overflow:visible;"/>
		</clipPath>
		<rect x="1.5" y="1" class="st6" width="14" height="11.9"/>
	</g>
</g>
</svg>
